lab4/dadda/sim/summary.log
Reading pref.tcl

# 10.7c

# vsim top
# vsim top 
# Start time: 19:55:54 on Mar 18,2021
# ** Note: (vsim-3812) Design is being optimized...
# ** Warning: ../tb/monitor.sv(49): (vopt-2240) Treating stand-alone use of function 'begin_tr' as an implicit VOID cast.
# ** Warning: ../tb/monitor_out.sv(48): (vopt-2240) Treating stand-alone use of function 'begin_tr' as an implicit VOID cast.
# //  Questa Sim-64
# //  Version 10.7c linux_x86_64 Aug 17 2018
# //
# //  Copyright 1991-2018 Mentor Graphics Corporation
# //  All Rights Reserved.
# //
# //  QuestaSim and its associated documentation contain trade
# //  secrets and commercial or financial information that are the property of
# //  Mentor Graphics Corporation and are privileged, confidential,
# //  and exempt from disclosure under the Freedom of Information Act,
# //  5 U.S.C. Section 552. Furthermore, this information
# //  is prohibited from disclosure under the Trade Secrets Act,
# //  18 U.S.C. Section 1905.
# //
# Loading sv_std.std
# Loading mtiUvm.uvm_pkg
# Loading work.top_sv_unit(fast)
# Loading work.top(fast)
# Loading work.DUT(fast)
# Loading mtiUvm.questa_uvm_pkg(fast)
# Loading work.dut_if(fast)
# Loading std.standard
# Loading std.textio(body)
# Loading ieee.std_logic_1164(body)
# Loading ieee.numeric_std(body)
# Loading work.mbe(rtl)#1
# ** Warning: (vsim-3839) Variable '/top/out/data', driven via a port connection, is multiply driven. See ../src/DUT.sv(3).
#    Time: 0 ns  Iteration: 0  Instance: /top/sum File: ../src/DUT.sv Line: 9
# ** Warning: (vsim-3764) Stand-alone call to function 'begin_tr' treated as implicit void cast.
#    Time: 0 ns  Iteration: 0  Region: /top_sv_unit::driver File: ../tb/driver.sv Line: 67
# Loading /software/mentor/questa10.7c/questasim/uvm-1.1d/linux_x86_64/uvm_dpi.so
#  run 4 us
# ----------------------------------------------------------------
# UVM-1.1d
# (C) 2007-2013 Mentor Graphics Corporation
# (C) 2007-2013 Cadence Design Systems, Inc.
# (C) 2006-2013 Synopsys, Inc.
# (C) 2011-2013 Cypress Semiconductor Corp.
# ----------------------------------------------------------------
# 
#   ***********       IMPORTANT RELEASE NOTES         ************
# 
#   You are using a version of the UVM library that has been compiled
#   with `UVM_NO_DEPRECATED undefined.
#   See http://www.eda.org/svdb/view.php?id=3313 for more details.
# 
#   You are using a version of the UVM library that has been compiled
#   with `UVM_OBJECT_MUST_HAVE_CONSTRUCTOR undefined.
#   See http://www.eda.org/svdb/view.php?id=3770 for more details.
# 
#       (Specify +UVM_NO_RELNOTES to turn off this notice)
# 
# UVM_INFO verilog_src/questa_uvm_pkg-1.2/src/questa_uvm_pkg.sv(215) @ 0: reporter [Questa UVM] QUESTA_UVM-1.2.3
# UVM_INFO verilog_src/questa_uvm_pkg-1.2/src/questa_uvm_pkg.sv(216) @ 0: reporter [Questa UVM]  questa_uvm::init(+struct)
# UVM_INFO @ 0: reporter [RNTST] Running test simple_test...
# adder: input A =  731014105, input B =  175121917, output OUT =   128016591421639285
# adder: input A = 00101011100100100110001111011001, input B = 00001010011100000010010111111101, output OUT = 0000000111000110110011100110100101100001000010110000101001110101
# refmod: input A =   731014105, input B =   175121917, output OUT =  1628113525
# refmod: input A = 00101011100100100110001111011001, input B = 00001010011100000010010111111101, output OUT = 01100001000010110000101001110101
# UVM_INFO @ 45: uvm_test_top.env_h.comp [Comparator Match] 
# adder: input A =   80379531, input B =  554858996, output OUT =    44599305869610876
# adder: input A = 00000100110010100111111010001011, input B = 00100001000100100111100111110100, output OUT = 0000000010011110011100101101010100010111100101100100111101111100
# refmod: input A =    80379531, input B =   554858996, output OUT =   395726716
# refmod: input A = 00000100110010100111111010001011, input B = 00100001000100100111100111110100, output OUT = 00010111100101100100111101111100
# UVM_INFO @ 75: uvm_test_top.env_h.comp [Comparator Match] 
# adder: input A =  260878708, input B = 1665468698, output OUT =   434485322148682184
# adder: input A = 00001111100011001011000101110100, input B = 01100011010001010000100100011010, output OUT = 0000011000000111100110100001100100110110110010110001100111001000
# refmod: input A =   260878708, input B =  1665468698, output OUT =   919280072
# refmod: input A = 00001111100011001011000101110100, input B = 01100011010001010000100100011010, output OUT = 00110110110010110001100111001000
# UVM_INFO @ 105: uvm_test_top.env_h.comp [Comparator Match] 
# adder: input A = 2117138060, input B = 1952321135, output OUT =  4133333380250898100
# adder: input A = 01111110001100001111011010001100, input B = 01110100010111100000111001101111, output OUT = 0011100101011100100011001100111101011100000111101000111010110100
# refmod: input A =  2117138060, input B =  1952321135, output OUT =  1545506484
# refmod: input A = 01111110001100001111011010001100, input B = 01110100010111100000111001101111, output OUT = 01011100000111101000111010110100
# UVM_INFO @ 135: uvm_test_top.env_h.comp [Comparator Match] 
# adder: input A =  534645071, input B = 1568245229, output OUT =   838454581804116259
# adder: input A = 00011111110111100000100101001111, input B = 01011101011110011000010111101101, output OUT = 0000101110100010110010011111111111110100101110111010100100100011
# refmod: input A =   534645071, input B =  1568245229, output OUT =  -189028061
# refmod: input A = 00011111110111100000100101001111, input B = 01011101011110011000010111101101, output OUT = 11110100101110111010100100100011
# UVM_INFO @ 165: uvm_test_top.env_h.comp [Comparator Match] 
# adder: input A =  140412694, input B = 1111608308, output OUT =   156083917199061752
# adder: input A = 00001000010111101000011100010110, input B = 01000010010000011100101111110100, output OUT = 0000001000101010100001010111111011100111110011010011001011111000
# refmod: input A =   140412694, input B =  1111608308, output OUT =  -405982472
# refmod: input A = 00001000010111101000011100010110, input B = 01000010010000011100101111110100, output OUT = 11100111110011010011001011111000
# UVM_INFO @ 195: uvm_test_top.env_h.comp [Comparator Match] 
# adder: input A = 1613751131, input B = 1799801805, output OUT =  2904432198394591455
# adder: input A = 01100000001011111110001101011011, input B = 01101011010001101100101111001101, output OUT = 0010100001001110100111011011001000110011100001000011100011011111
# refmod: input A =  1613751131, input B =  1799801805, output OUT =   864303327
# refmod: input A = 01100000001011111110001101011011, input B = 01101011010001101100101111001101, output OUT = 00110011100001000011100011011111
# UVM_INFO @ 225: uvm_test_top.env_h.comp [Comparator Match] 
# adder: input A =  383892865, input B = 1223760944, output OUT =   469793094867264560
# adder: input A = 00010110111000011011110110000001, input B = 01001000111100010001110000110000, output OUT = 0000011010000101000010100101010010101001011111101010010000110000
# refmod: input A =   383892865, input B =  1223760944, output OUT = -1451318224
# refmod: input A = 00010110111000011011110110000001, input B = 01001000111100010001110000110000, output OUT = 10101001011111101010010000110000
# UVM_INFO @ 255: uvm_test_top.env_h.comp [Comparator Match] 
# adder: input A = 1725197148, input B = 1315262525, output OUT =  2269087157001278700
# adder: input A = 01100110110101000110101101011100, input B = 01001110011001010101000000111101, output OUT = 0001111101111101011010101011111101000101011101100101010011101100
# refmod: input A =  1725197148, input B =  1315262525, output OUT =  1165382892
# refmod: input A = 01100110110101000110101101011100, input B = 01001110011001010101000000111101, output OUT = 01000101011101100101010011101100
# UVM_INFO @ 285: uvm_test_top.env_h.comp [Comparator Match] 
# adder: input A =  225746596, input B =  790780233, output OUT =   178515945783836868
# adder: input A = 00001101011101001001111010100100, input B = 00101111001000100101100101001001, output OUT = 0000001001111010001101110100111010001111001100000100000011000100
# refmod: input A =   225746596, input B =   790780233, output OUT = -1892663100
# refmod: input A = 00001101011101001001111010100100, input B = 00101111001000100101100101001001, output OUT = 10001111001100000100000011000100
# UVM_INFO @ 315: uvm_test_top.env_h.comp [Comparator Match] 
# adder: input A = 1541776121, input B = 1428688626, output OUT =  2202718007911099746
# adder: input A = 01011011111001011010001011111001, input B = 01010101001010000000111011110010, output OUT = 0001111010010001101000000101101110010001111001011010110101100010
# refmod: input A =  1541776121, input B =  1428688626, output OUT = -1847218846
# refmod: input A = 01011011111001011010001011111001, input B = 01010101001010000000111011110010, output OUT = 10010001111001011010110101100010
# UVM_INFO @ 345: uvm_test_top.env_h.comp [Comparator Match] 
# adder: input A = 1246460781, input B = 1569374088, output OUT =  1956163251409642728
# adder: input A = 01001010010010110111101101101101, input B = 01011101100010101011111110001000, output OUT = 0001101100100101101100000001110011101010111100011110010011101000
# refmod: input A =  1246460781, input B =  1569374088, output OUT =  -353245976
# refmod: input A = 01001010010010110111101101101101, input B = 01011101100010101011111110001000, output OUT = 11101010111100011110010011101000
# UVM_INFO @ 375: uvm_test_top.env_h.comp [Comparator Match] 
# adder: input A = 1712994403, input B =  601358051, output OUT =  1030122975561988553
# adder: input A = 01100110000110100011100001100011, input B = 00100011110101111111111011100011, output OUT = 0000111001001011101110110110001101110001010101110011100111001001
# refmod: input A =  1712994403, input B =   601358051, output OUT =  1901541833
# refmod: input A = 01100110000110100011100001100011, input B = 00100011110101111111111011100011, output OUT = 01110001010101110011100111001001
# UVM_INFO @ 405: uvm_test_top.env_h.comp [Comparator Match] 
# adder: input A = 1399840739, input B =  350842963, output OUT =   491124272598869657
# adder: input A = 01010011011011111101111111100011, input B = 00010100111010010111000001010011, output OUT = 0000011011010000110100101110110010000000110100111110011010011001
# refmod: input A =  1399840739, input B =   350842963, output OUT = -2133596519
# refmod: input A = 01010011011011111101111111100011, input B = 00010100111010010111000001010011, output OUT = 10000000110100111110011010011001
# UVM_INFO @ 435: uvm_test_top.env_h.comp [Comparator Match] 
# adder: input A =   91952929, input B = 1965175865, output OUT =   180703676786858585
# adder: input A = 00000101011110110001011100100001, input B = 01110101001000100011010000111001, output OUT = 0000001010000001111111010000100101100000011111001101101001011001
# refmod: input A =    91952929, input B =  1965175865, output OUT =  1618795097
# refmod: input A = 00000101011110110001011100100001, input B = 01110101001000100011010000111001, output OUT = 01100000011111001101101001011001
# UVM_INFO @ 465: uvm_test_top.env_h.comp [Comparator Match] 
# adder: input A =  925443358, input B =  460769222, output OUT =   426415816070727476
# adder: input A = 00110111001010010010010100011110, input B = 00011011011101101100011111000110, output OUT = 0000010111101010111011101110110011101011100000010000011100110100
# refmod: input A =   925443358, input B =   460769222, output OUT =  -343865548
# refmod: input A = 00110111001010010010010100011110, input B = 00011011011101101100011111000110, output OUT = 11101011100000010000011100110100
# UVM_INFO @ 495: uvm_test_top.env_h.comp [Comparator Match] 
# adder: input A =  876184097, input B =  614306907, output OUT =   538245942590657979
# adder: input A = 00110100001110011000001000100001, input B = 00100100100111011001010001011011, output OUT = 0000011101111000001110111101010101000001111010010101010110111011
# refmod: input A =   876184097, input B =   614306907, output OUT =  1105810875
# refmod: input A = 00110100001110011000001000100001, input B = 00100100100111011001010001011011, output OUT = 01000001111010010101010110111011
# UVM_INFO @ 525: uvm_test_top.env_h.comp [Comparator Match] 
# adder: input A = 1568767450, input B = 1075088082, output OUT =  1686563188924530900
# adder: input A = 01011101100000010111110111011010, input B = 01000000000101001000101011010010, output OUT = 0001011101100111111000000100100011010111000110001100000011010100
# refmod: input A =  1568767450, input B =  1075088082, output OUT =  -686243628
# refmod: input A = 01011101100000010111110111011010, input B = 01000000000101001000101011010010, output OUT = 11010111000110001100000011010100
# UVM_INFO @ 555: uvm_test_top.env_h.comp [Comparator Match] 
# adder: input A = 1678953407, input B =  444558830, output OUT =   746393562240433810
# adder: input A = 01100100000100101100101110111111, input B = 00011010011111110110110111101110, output OUT = 0000101001011011101110001111110110000011111110101011111010010010
# refmod: input A =  1678953407, input B =   444558830, output OUT = -2080719214
# refmod: input A = 01100100000100101100101110111111, input B = 00011010011111110110110111101110, output OUT = 10000011111110101011111010010010
# UVM_INFO @ 585: uvm_test_top.env_h.comp [Comparator Match] 
# adder: input A = 1221817855, input B = 2011566019, output OUT =  2457767278525469245
# adder: input A = 01001000110100110111010111111111, input B = 01110111111001100000111111000011, output OUT = 0010001000011011101111100101000101101001000101101101001000111101
# refmod: input A =  1221817855, input B =  2011566019, output OUT =  1763103293
# refmod: input A = 01001000110100110111010111111111, input B = 01110111111001100000111111000011, output OUT = 01101001000101101101001000111101
# UVM_INFO @ 615: uvm_test_top.env_h.comp [Comparator Match] 
# adder: input A =  483247761, input B =   42791131, output OUT =    20678718246407691
# adder: input A = 00011100110011011100011010010001, input B = 00000010100011001111000011011011, output OUT = 0000000001001001011101110010111101000111011111001100111000001011
# refmod: input A =   483247761, input B =    42791131, output OUT =  1199361547
# refmod: input A = 00011100110011011100011010010001, input B = 00000010100011001111000011011011, output OUT = 01000111011111001100111000001011
# UVM_INFO @ 645: uvm_test_top.env_h.comp [Comparator Match] 
# adder: input A =  459354219, input B = 1329403142, output OUT =   610666942029556098
# adder: input A = 00011011011000010011000001101011, input B = 01001111001111010001010100000110, output OUT = 0000100001111001100001100101100100101011101111101110100110000010
# refmod: input A =   459354219, input B =  1329403142, output OUT =   733931906
# refmod: input A = 00011011011000010011000001101011, input B = 01001111001111010001010100000110, output OUT = 00101011101111101110100110000010
# UVM_INFO @ 675: uvm_test_top.env_h.comp [Comparator Match] 
# adder: input A = 1266089797, input B = 2073383015, output OUT =  2625089080564597955
# adder: input A = 01001011011101101111111101000101, input B = 01111011100101010101000001100111, output OUT = 0010010001101110001100001001110001000110110011110100010011000011
# refmod: input A =  1266089797, input B =  2073383015, output OUT =  1187988675
# refmod: input A = 01001011011101101111111101000101, input B = 01111011100101010101000001100111, output OUT = 01000110110011110100010011000011
# UVM_INFO @ 705: uvm_test_top.env_h.comp [Comparator Match] 
# adder: input A =  652409171, input B = 1668989895, output OUT =  1088864313804327045
# adder: input A = 00100110111000101111100101010011, input B = 01100011011110101100001111000111, output OUT = 0000111100011100011011000101001100001000111010000000100010000101
# refmod: input A =   652409171, input B =  1668989895, output OUT =   149424261
# refmod: input A = 00100110111000101111100101010011, input B = 01100011011110101100001111000111, output OUT = 00001000111010000000100010000101
# UVM_INFO @ 735: uvm_test_top.env_h.comp [Comparator Match] 
# adder: input A =  890816111, input B = 1746323356, output OUT =  1555652980540388516
# adder: input A = 00110101000110001100011001101111, input B = 01101000000101101100011110011100, output OUT = 0001010110010110110010100010010011000010111000110011010010100100
# refmod: input A =   890816111, input B =  1746323356, output OUT = -1025297244
# refmod: input A = 00110101000110001100011001101111, input B = 01101000000101101100011110011100, output OUT = 11000010111000110011010010100100
# UVM_INFO @ 765: uvm_test_top.env_h.comp [Comparator Match] 
# adder: input A = 1778436677, input B =  206073382, output OUT =   366488460702231614
# adder: input A = 01101010000000001100101001000101, input B = 00001100010010000110111000100110, output OUT = 0000010100010110000001110101000000110010011011111010110000111110
# refmod: input A =  1778436677, input B =   206073382, output OUT =   846179390
# refmod: input A = 01101010000000001100101001000101, input B = 00001100010010000110111000100110, output OUT = 00110010011011111010110000111110
# UVM_INFO @ 795: uvm_test_top.env_h.comp [Comparator Match] 
# adder: input A =  940084422, input B =  357238882, output OUT =   335834707900896204
# adder: input A = 00111000000010001000110011000110, input B = 00010101010010110000100001100010, output OUT = 0000010010101001000111111110001100110011101011100001001111001100
# refmod: input A =   940084422, input B =   357238882, output OUT =   867046348
# refmod: input A = 00111000000010001000110011000110, input B = 00010101010010110000100001100010, output OUT = 00110011101011100001001111001100
# UVM_INFO @ 825: uvm_test_top.env_h.comp [Comparator Match] 
# adder: input A = 1766121974, input B = 1385076643, output OUT =  2446214294876453282
# adder: input A = 01101001010001001110000111110110, input B = 01010010100011101001011110100011, output OUT = 0010000111110010101100101111000011001010100101111111100110100010
# refmod: input A =  1766121974, input B =  1385076643, output OUT =  -896009822
# refmod: input A = 01101001010001001110000111110110, input B = 01010010100011101001011110100011, output OUT = 11001010100101111111100110100010
# UVM_INFO @ 855: uvm_test_top.env_h.comp [Comparator Match] 
# adder: input A = 2067343682, input B =  977174398, output OUT =  2020155317917453436
# adder: input A = 01111011001110010010100101000010, input B = 00111010001111100111111101111110, output OUT = 0001110000001001000010001000111011110011100101100000110001111100
# refmod: input A =  2067343682, input B =   977174398, output OUT =  -208270212
# refmod: input A = 01111011001110010010100101000010, input B = 00111010001111100111111101111110, output OUT = 11110011100101100000110001111100
# UVM_INFO @ 885: uvm_test_top.env_h.comp [Comparator Match] 
# adder: input A =  378808866, input B = 1032434645, output OUT =   391095397091562570
# adder: input A = 00010110100101000010101000100010, input B = 00111101100010011011001111010101, output OUT = 0000010101101101011100110011000100001000111011101101010001001010
# refmod: input A =   378808866, input B =  1032434645, output OUT =   149869642
# refmod: input A = 00010110100101000010101000100010, input B = 00111101100010011011001111010101, output OUT = 00001000111011101101010001001010
# UVM_INFO @ 915: uvm_test_top.env_h.comp [Comparator Match] 
# adder: input A = 1977803549, input B =  108385716, output OUT =   214365653765706084
# adder: input A = 01110101111000101110001100011101, input B = 00000110011101011101010110110100, output OUT = 0000001011111001100101000110110100100100101111111101000101100100
# refmod: input A =  1977803549, input B =   108385716, output OUT =   616550756
# refmod: input A = 01110101111000101110001100011101, input B = 00000110011101011101010110110100, output OUT = 00100100101111111101000101100100
# UVM_INFO @ 945: uvm_test_top.env_h.comp [Comparator Match] 
# adder: input A =  785484068, input B = 1146585647, output OUT =   900624758315971996
# adder: input A = 00101110110100011000100100100100, input B = 01000100010101111000001000101111, output OUT = 0000110001111111101010010111001000101011010110000111010110011100
# refmod: input A =   785484068, input B =  1146585647, output OUT =   727217564
# refmod: input A = 00101110110100011000100100100100, input B = 01000100010101111000001000101111, output OUT = 00101011010110000111010110011100
# UVM_INFO @ 975: uvm_test_top.env_h.comp [Comparator Match] 
# adder: input A =  913974563, input B =  690282282, output OUT =   630900447037592766
# adder: input A = 00110110011110100010010100100011, input B = 00101001001001001101111100101010, output OUT = 0000100011000001011010001001110100101010010011111001010010111110
# refmod: input A =   913974563, input B =   690282282, output OUT =   709858494
# refmod: input A = 00110110011110100010010100100011, input B = 00101001001001001101111100101010, output OUT = 00101010010011111001010010111110
# UVM_INFO @ 1005: uvm_test_top.env_h.comp [Comparator Match] 
# adder: input A = 1544876891, input B = 1738059493, output OUT =  2685087945918876263
# adder: input A = 01011100000101001111001101011011, input B = 01100111100110001010111011100101, output OUT = 0010010101000011010110010100001010110111001011011000101001100111
# refmod: input A =  1544876891, input B =  1738059493, output OUT = -1221752217
# refmod: input A = 01011100000101001111001101011011, input B = 01100111100110001010111011100101, output OUT = 10110111001011011000101001100111
# UVM_INFO @ 1035: uvm_test_top.env_h.comp [Comparator Match] 
# adder: input A = 1961337323, input B =  556136144, output OUT =  1090770575896502512
# adder: input A = 01110100111001111010000111101011, input B = 00100001001001011111011011010000, output OUT = 0000111100100011001100100000111101000011110000100110000011110000
# refmod: input A =  1961337323, input B =   556136144, output OUT =  1136812272
# refmod: input A = 01110100111001111010000111101011, input B = 00100001001001011111011011010000, output OUT = 01000011110000100110000011110000
# UVM_INFO @ 1065: uvm_test_top.env_h.comp [Comparator Match] 
# adder: input A = 1727143128, input B =  724064169, output OUT =  1250562453719380632
# adder: input A = 01100110111100100001110011011000, input B = 00101011001010000101011110101001, output OUT = 0001000101011010111000111110110100000111011000100111001010011000
# refmod: input A =  1727143128, input B =   724064169, output OUT =   123892376
# refmod: input A = 01100110111100100001110011011000, input B = 00101011001010000101011110101001, output OUT = 00000111011000100111001010011000
# UVM_INFO @ 1095: uvm_test_top.env_h.comp [Comparator Match] 
# adder: input A =  246654637, input B = 1595147461, output OUT =   393450517954426657
# adder: input A = 00001110101100111010011010101101, input B = 01011111000101000000010011000101, output OUT = 0000010101110101110100010010100101010111010111011111011100100001
# refmod: input A =   246654637, input B =  1595147461, output OUT =  1465775905
# refmod: input A = 00001110101100111010011010101101, input B = 01011111000101000000010011000101, output OUT = 01010111010111011111011100100001
# UVM_INFO @ 1125: uvm_test_top.env_h.comp [Comparator Match] 
# adder: input A = 1646293169, input B = 1054092443, output OUT =  1735345188405421867
# adder: input A = 01100010001000000111000010110001, input B = 00111110110101000010110010011011, output OUT = 0001100000010101001011110100000100101101100101101010011100101011
# refmod: input A =  1646293169, input B =  1054092443, output OUT =   764847915
# refmod: input A = 01100010001000000111000010110001, input B = 00111110110101000010110010011011, output OUT = 00101101100101101010011100101011
# UVM_INFO @ 1155: uvm_test_top.env_h.comp [Comparator Match] 
# adder: input A = 1801400708, input B = 1247084803, output OUT =  2246499447060240524
# adder: input A = 01101011010111110011000110000100, input B = 01001010010101010000000100000011, output OUT = 0001111100101101001010110101100000111010001000110001100010001100
# refmod: input A =  1801400708, input B =  1247084803, output OUT =   975378572
# refmod: input A = 01101011010111110011000110000100, input B = 01001010010101010000000100000011, output OUT = 00111010001000110001100010001100
# UVM_INFO @ 1185: uvm_test_top.env_h.comp [Comparator Match] 
# adder: input A = 1637527070, input B =  818587330, output OUT =  1340458912034023100
# adder: input A = 01100001100110101010111000011110, input B = 00110000110010101010011011000010, output OUT = 0001001010011010010001000100011101000111110010110110011010111100
# refmod: input A =  1637527070, input B =   818587330, output OUT =  1204512444
# refmod: input A = 01100001100110101010111000011110, input B = 00110000110010101010011011000010, output OUT = 01000111110010110110011010111100
# UVM_INFO @ 1215: uvm_test_top.env_h.comp [Comparator Match] 
# adder: input A =  268764860, input B =   55086148, output OUT =    14805220855159280
# adder: input A = 00010000000001010000011010111100, input B = 00000011010010001000110001000100, output OUT = 0000000000110100100110010100010100011001111001001001100111110000
# refmod: input A =   268764860, input B =    55086148, output OUT =   434412016
# refmod: input A = 00010000000001010000011010111100, input B = 00000011010010001000110001000100, output OUT = 00011001111001001001100111110000
# UVM_INFO @ 1245: uvm_test_top.env_h.comp [Comparator Match] 
# adder: input A = 1106214409, input B = 2036386609, output OUT =  2252680209170449081
# adder: input A = 01000001111011110111111000001001, input B = 01111001011000001100101100110001, output OUT = 0001111101000011001000001011011100001100001010000100001010111001
# refmod: input A =  1106214409, input B =  2036386609, output OUT =   203965113
# refmod: input A = 01000001111011110111111000001001, input B = 01111001011000001100101100110001, output OUT = 00001100001010000100001010111001
# UVM_INFO @ 1275: uvm_test_top.env_h.comp [Comparator Match] 
# adder: input A = 2126079140, input B = 2008913794, output OUT =  4271109711481657160
# adder: input A = 01111110101110010110010010100100, input B = 01110111101111011001011110000010, output OUT = 0011101101000110000001111010011100111101100101011101011101001000
# refmod: input A =  2126079140, input B =  2008913794, output OUT =  1033230152
# refmod: input A = 01111110101110010110010010100100, input B = 01110111101111011001011110000010, output OUT = 00111101100101011101011101001000
# UVM_INFO @ 1305: uvm_test_top.env_h.comp [Comparator Match] 
# adder: input A = 1937459090, input B =  999367748, output OUT =  1936234127615429320
# adder: input A = 01110011011110110100011110010010, input B = 00111011100100010010010001000100, output OUT = 0001101011011110111000101010111000110010100000011000101011001000
# refmod: input A =  1937459090, input B =   999367748, output OUT =   847350472
# refmod: input A = 01110011011110110100011110010010, input B = 00111011100100010010010001000100, output OUT = 00110010100000011000101011001000
# UVM_INFO @ 1335: uvm_test_top.env_h.comp [Comparator Match] 
# adder: input A = 1889158811, input B = 1197094634, output OUT =  2261501875421920174
# adder: input A = 01110000100110100100011010011011, input B = 01000111010110100011011011101010, output OUT = 0001111101100010011101111111100101000111011001110011101110101110
# refmod: input A =  1889158811, input B =  1197094634, output OUT =  1197947822
# refmod: input A = 01110000100110100100011010011011, input B = 01000111010110100011011011101010, output OUT = 01000111011001110011101110101110
# UVM_INFO @ 1365: uvm_test_top.env_h.comp [Comparator Match] 
# adder: input A = 1769917891, input B =  203933794, output OUT =   360946070580108454
# adder: input A = 01101001011111101100110111000011, input B = 00001100001001111100100001100010, output OUT = 0000010100000010010101101000100111110000000000000001110010100110
# refmod: input A =  1769917891, input B =   203933794, output OUT =  -268428122
# refmod: input A = 01101001011111101100110111000011, input B = 00001100001001111100100001100010, output OUT = 11110000000000000001110010100110
# UVM_INFO @ 1395: uvm_test_top.env_h.comp [Comparator Match] 
# adder: input A = 1881716334, input B = 1096569457, output OUT =  2063432658602410638
# adder: input A = 01110000001010001011011001101110, input B = 01000001010111000101001001110001, output OUT = 0001110010100010110010010001001000001001111011111100001010001110
# refmod: input A =  1881716334, input B =  1096569457, output OUT =   166707854
# refmod: input A = 01110000001010001011011001101110, input B = 01000001010111000101001001110001, output OUT = 00001001111011111100001010001110
# UVM_INFO @ 1425: uvm_test_top.env_h.comp [Comparator Match] 
# adder: input A = 1774463054, input B = 1288052871, output OUT =  2285602231188128034
# adder: input A = 01101001110001000010100001001110, input B = 01001100110001100010000010000111, output OUT = 0001111110111000000101110001111010011111110011110000000100100010
# refmod: input A =  1774463054, input B =  1288052871, output OUT = -1613823710
# refmod: input A = 01101001110001000010100001001110, input B = 01001100110001100010000010000111, output OUT = 10011111110011110000000100100010
# UVM_INFO @ 1455: uvm_test_top.env_h.comp [Comparator Match] 
# adder: input A = 1436771488, input B = 1472451230, output OUT =  2115575944734530240
# adder: input A = 01010101101000110110010010100000, input B = 01010111110000111101001010011110, output OUT = 0001110101011100000010010001110011101001010000110101101011000000
# refmod: input A =  1436771488, input B =  1472451230, output OUT =  -381461824
# refmod: input A = 01010101101000110110010010100000, input B = 01010111110000111101001010011110, output OUT = 11101001010000110101101011000000
# UVM_INFO @ 1485: uvm_test_top.env_h.comp [Comparator Match] 
# adder: input A = 1111989750, input B = 1067334004, output OUT =  1186864472274459000
# adder: input A = 01000010010001111001110111110110, input B = 00111111100111100011100101110100, output OUT = 0001000001111000100101101111001100000010011100110101100101111000
# refmod: input A =  1111989750, input B =  1067334004, output OUT =    41113976
# refmod: input A = 01000010010001111001110111110110, input B = 00111111100111100011100101110100, output OUT = 00000010011100110101100101111000
# UVM_INFO @ 1515: uvm_test_top.env_h.comp [Comparator Match] 
# adder: input A = 1114038145, input B = 1876740513, output OUT =  2090760519748868385
# adder: input A = 01000010011001101101111110000001, input B = 01101111110111001100100110100001, output OUT = 0001110100000011110111111001110110001010000010101101100100100001
# refmod: input A =  1114038145, input B =  1876740513, output OUT = -1979000543
# refmod: input A = 01000010011001101101111110000001, input B = 01101111110111001100100110100001, output OUT = 10001010000010101101100100100001
# UVM_INFO @ 1545: uvm_test_top.env_h.comp [Comparator Match] 
# adder: input A = 1038458893, input B =  416159570, output OUT =   432164606373556010
# adder: input A = 00111101111001011010000000001101, input B = 00011000110011100001011101010010, output OUT = 0000010111111111010110110110101101110111011001000110111100101010
# refmod: input A =  1038458893, input B =   416159570, output OUT =  2003070762
# refmod: input A = 00111101111001011010000000001101, input B = 00011000110011100001011101010010, output OUT = 01110111011001000110111100101010
# UVM_INFO @ 1575: uvm_test_top.env_h.comp [Comparator Match] 
# adder: input A = 1484144752, input B = 1048310288, output OUT =  1555844212402808576
# adder: input A = 01011000011101100100000001110000, input B = 00111110011110111111001000010000, output OUT = 0001010110010111011110000001000101100110000111011110011100000000
# refmod: input A =  1484144752, input B =  1048310288, output OUT =  1713235712
# refmod: input A = 01011000011101100100000001110000, input B = 00111110011110111111001000010000, output OUT = 01100110000111011110011100000000
# UVM_INFO @ 1605: uvm_test_top.env_h.comp [Comparator Match] 
# adder: input A =   48072737, input B =  488282587, output OUT =    23473080386530619
# adder: input A = 00000010110111011000100000100001, input B = 00011101000110101001100111011011, output OUT = 0000000001010011011001001010010001101010001110010010110100111011
# refmod: input A =    48072737, input B =   488282587, output OUT =  1782132027
# refmod: input A = 00000010110111011000100000100001, input B = 00011101000110101001100111011011, output OUT = 01101010001110010010110100111011
# UVM_INFO @ 1635: uvm_test_top.env_h.comp [Comparator Match] 
# adder: input A =   69971449, input B =  373111244, output OUT =    26107134380872556
# adder: input A = 00000100001010111010110111111001, input B = 00010110001111010011100111001100, output OUT = 0000000001011100110000000100110011100110111000000001001101101100
# refmod: input A =    69971449, input B =   373111244, output OUT =  -421522580
# refmod: input A = 00000100001010111010110111111001, input B = 00010110001111010011100111001100, output OUT = 11100110111000000001001101101100
# UVM_INFO @ 1665: uvm_test_top.env_h.comp [Comparator Match] 
# adder: input A = 1953219277, input B = 1325665225, output OUT =  2589314872318542325
# adder: input A = 01110100011010111100001011001101, input B = 01001111000001000000101111001001, output OUT = 0010001111101111000110000010100001011000001011101100000111110101
# refmod: input A =  1953219277, input B =  1325665225, output OUT =  1479459317
# refmod: input A = 01110100011010111100001011001101, input B = 01001111000001000000101111001001, output OUT = 01011000001011101100000111110101
# UVM_INFO @ 1695: uvm_test_top.env_h.comp [Comparator Match] 
# adder: input A = 1036759395, input B = 1179113619, output OUT =  1222457122270700505
# adder: input A = 00111101110010111011000101100011, input B = 01000110010001111101100010010011, output OUT = 0001000011110111000010100100011010011110000101110110001111011001
# refmod: input A =  1036759395, input B =  1179113619, output OUT = -1642634279
# refmod: input A = 00111101110010111011000101100011, input B = 01000110010001111101100010010011, output OUT = 10011110000101110110001111011001
# UVM_INFO @ 1725: uvm_test_top.env_h.comp [Comparator Match] 
# adder: input A =  938463625, input B =  248634348, output OUT =   233334291523591500
# adder: input A = 00110111111011111101000110001001, input B = 00001110110100011101101111101100, output OUT = 0000001100111100111110000100110101001000001011100101110101001100
# refmod: input A =   938463625, input B =   248634348, output OUT =  1210998092
# refmod: input A = 00110111111011111101000110001001, input B = 00001110110100011101101111101100, output OUT = 01001000001011100101110101001100
# UVM_INFO @ 1755: uvm_test_top.env_h.comp [Comparator Match] 
# adder: input A = 1365324428, input B =  820141789, output OUT =  1119759618945321692
# adder: input A = 01010001011000010011001010001100, input B = 00110000111000100101111011011101, output OUT = 0000111110001010001011110111000011010001000100000000101011011100
# refmod: input A =  1365324428, input B =   820141789, output OUT =  -787477796
# refmod: input A = 01010001011000010011001010001100, input B = 00110000111000100101111011011101, output OUT = 11010001000100000000101011011100
# UVM_INFO @ 1785: uvm_test_top.env_h.comp [Comparator Match] 
# adder: input A = 1188036696, input B = 1734826974, output OUT =  2061038106322637904
# adder: input A = 01000110110100000000000001011000, input B = 01100111011001110101101111011110, output OUT = 0001110010011010010001110011110011100011111001111001010001010000
# refmod: input A =  1188036696, input B =  1734826974, output OUT =  -471362480
# refmod: input A = 01000110110100000000000001011000, input B = 01100111011001110101101111011110, output OUT = 11100011111001111001010001010000
# UVM_INFO @ 1815: uvm_test_top.env_h.comp [Comparator Match] 
# adder: input A =  874323444, input B = 1192419745, output OUT =  1042560538142001780
