lab4/fpmul/sim/summary.log
Reading pref.tcl

# 10.7c

# vsim top
# vsim top 
# Start time: 18:33:52 on Apr 13,2021
# ** Note: (vsim-3812) Design is being optimized...
# ** Warning: ../tb/monitor.sv(49): (vopt-2240) Treating stand-alone use of function 'begin_tr' as an implicit VOID cast.
# ** Warning: ../tb/monitor_out.sv(48): (vopt-2240) Treating stand-alone use of function 'begin_tr' as an implicit VOID cast.
# //  Questa Sim-64
# //  Version 10.7c linux_x86_64 Aug 17 2018
# //
# //  Copyright 1991-2018 Mentor Graphics Corporation
# //  All Rights Reserved.
# //
# //  QuestaSim and its associated documentation contain trade
# //  secrets and commercial or financial information that are the property of
# //  Mentor Graphics Corporation and are privileged, confidential,
# //  and exempt from disclosure under the Freedom of Information Act,
# //  5 U.S.C. Section 552. Furthermore, this information
# //  is prohibited from disclosure under the Trade Secrets Act,
# //  18 U.S.C. Section 1905.
# //
# Loading sv_std.std
# Loading mtiUvm.uvm_pkg
# Loading work.top_sv_unit(fast)
# Loading work.top(fast)
# Loading work.DUT(fast)
# Loading mtiUvm.questa_uvm_pkg(fast)
# Loading work.dut_if(fast)
# Loading std.standard
# Loading std.textio(body)
# Loading ieee.std_logic_1164(body)
# Loading ieee.std_logic_arith(body)
# Loading work.fpmul(pipeline)#1
# Loading work.fpmul_stage1(struct)#1
# Loading work.unpackfp(unpackfp)#1
# Loading work.fpmul_stage2(struct)#1
# Loading ieee.std_logic_unsigned(body)
# Loading work.fpmul_stage3(struct)#1
# Loading work.fpnormalize(fpnormalize)#1
# Loading work.fpround(fpround)#1
# Loading work.fpmul_stage4(struct)#1
# Loading work.packfp(packfp)#1
# ** Warning: (vsim-3839) Variable '/top/out/data', driven via a port connection, is multiply driven. See ../src/DUT.sv(3).
#    Time: 0 ns  Iteration: 0  Instance: /top/fpmul File: ../src/DUT.sv Line: 11
# ** Warning: (vsim-3764) Stand-alone call to function 'begin_tr' treated as implicit void cast.
#    Time: 0 ns  Iteration: 0  Region: /top_sv_unit::driver File: ../tb/driver.sv Line: 67
# Loading /software/mentor/questa10.7c/questasim/uvm-1.1d/linux_x86_64/uvm_dpi.so
#  run 4 us
# ----------------------------------------------------------------
# UVM-1.1d
# (C) 2007-2013 Mentor Graphics Corporation
# (C) 2007-2013 Cadence Design Systems, Inc.
# (C) 2006-2013 Synopsys, Inc.
# (C) 2011-2013 Cypress Semiconductor Corp.
# ----------------------------------------------------------------
# 
#   ***********       IMPORTANT RELEASE NOTES         ************
# 
#   You are using a version of the UVM library that has been compiled
#   with `UVM_NO_DEPRECATED undefined.
#   See http://www.eda.org/svdb/view.php?id=3313 for more details.
# 
#   You are using a version of the UVM library that has been compiled
#   with `UVM_OBJECT_MUST_HAVE_CONSTRUCTOR undefined.
#   See http://www.eda.org/svdb/view.php?id=3770 for more details.
# 
#       (Specify +UVM_NO_RELNOTES to turn off this notice)
# 
# UVM_INFO verilog_src/questa_uvm_pkg-1.2/src/questa_uvm_pkg.sv(215) @ 0: reporter [Questa UVM] QUESTA_UVM-1.2.3
# UVM_INFO verilog_src/questa_uvm_pkg-1.2/src/questa_uvm_pkg.sv(216) @ 0: reporter [Questa UVM]  questa_uvm::init(+struct)
# ** Warning: There is an 'U'|'X'|'W'|'Z'|'-' in an arithmetic operand, the result will be 'X'(es).
#    Time: 0 ns  Iteration: 0  Instance: /top/fpmul/fpmul_under_test/I3/I11
# ** Warning: There is an 'U'|'X'|'W'|'Z'|'-' in an arithmetic operand, the result will be 'X'(es).
#    Time: 0 ns  Iteration: 0  Instance: /top/fpmul/fpmul_under_test/I3/I11
# ** Warning: There is an 'U'|'X'|'W'|'Z'|'-' in an arithmetic operand, the result will be 'X'(es).
#    Time: 0 ns  Iteration: 0  Instance: /top/fpmul/fpmul_under_test/I2
# ** Warning: There is an 'U'|'X'|'W'|'Z'|'-' in an arithmetic operand, the result will be 'X'(es).
#    Time: 0 ns  Iteration: 0  Instance: /top/fpmul/fpmul_under_test/I2
# ** Warning: There is an 'U'|'X'|'W'|'Z'|'-' in an arithmetic operand, the result will be 'X'(es).
#    Time: 0 ns  Iteration: 0  Instance: /top/fpmul/fpmul_under_test/I2
# ** Warning: There is an 'U'|'X'|'W'|'Z'|'-' in an arithmetic operand, the result will be 'X'(es).
#    Time: 0 ns  Iteration: 0  Instance: /top/fpmul/fpmul_under_test/I2
# ** Warning: There is an 'U'|'X'|'W'|'Z'|'-' in an arithmetic operand, the result will be 'X'(es).
#    Time: 0 ns  Iteration: 0  Instance: /top/fpmul/fpmul_under_test/I2
# ** Warning: There is an 'U'|'X'|'W'|'Z'|'-' in an arithmetic operand, the result will be 'X'(es).
#    Time: 0 ns  Iteration: 0  Instance: /top/fpmul/fpmul_under_test/I2
# ** Warning: There is an 'U'|'X'|'W'|'Z'|'-' in an arithmetic operand, the result will be 'X'(es).
#    Time: 0 ns  Iteration: 0  Instance: /top/fpmul/fpmul_under_test/I2
# UVM_INFO @ 0: reporter [RNTST] Running test simple_test...
# ** Warning: There is an 'U'|'X'|'W'|'Z'|'-' in an arithmetic operand, the result will be 'X'(es).
#    Time: 0 ns  Iteration: 1  Instance: /top/fpmul/fpmul_under_test/I2
# ** Warning: There is an 'U'|'X'|'W'|'Z'|'-' in an arithmetic operand, the result will be 'X'(es).
#    Time: 0 ns  Iteration: 1  Instance: /top/fpmul/fpmul_under_test/I2
# ** Warning: There is an 'U'|'X'|'W'|'Z'|'-' in an arithmetic operand, the result will be 'X'(es).
#    Time: 0 ns  Iteration: 1  Instance: /top/fpmul/fpmul_under_test/I2
# ** Warning: There is an 'U'|'X'|'W'|'Z'|'-' in an arithmetic operand, the result will be 'X'(es).
#    Time: 0 ns  Iteration: 1  Instance: /top/fpmul/fpmul_under_test/I2
# ** Warning: There is an 'U'|'X'|'W'|'Z'|'-' in an arithmetic operand, the result will be 'X'(es).
#    Time: 5 ns  Iteration: 2  Instance: /top/fpmul/fpmul_under_test/I2
# ** Warning: There is an 'U'|'X'|'W'|'Z'|'-' in an arithmetic operand, the result will be 'X'(es).
#    Time: 5 ns  Iteration: 2  Instance: /top/fpmul/fpmul_under_test/I2
# ** Warning: There is an 'U'|'X'|'W'|'Z'|'-' in an arithmetic operand, the result will be 'X'(es).
#    Time: 5 ns  Iteration: 2  Instance: /top/fpmul/fpmul_under_test/I2
# ** Warning: There is an 'U'|'X'|'W'|'Z'|'-' in an arithmetic operand, the result will be 'X'(es).
#    Time: 5 ns  Iteration: 2  Instance: /top/fpmul/fpmul_under_test/I2
# ** Warning: There is an 'U'|'X'|'W'|'Z'|'-' in an arithmetic operand, the result will be 'X'(es).
#    Time: 5 ns  Iteration: 2  Instance: /top/fpmul/fpmul_under_test/I2
# ** Warning: There is an 'U'|'X'|'W'|'Z'|'-' in an arithmetic operand, the result will be 'X'(es).
#    Time: 5 ns  Iteration: 2  Instance: /top/fpmul/fpmul_under_test/I2
# ** Warning: There is an 'U'|'X'|'W'|'Z'|'-' in an arithmetic operand, the result will be 'X'(es).
#    Time: 5 ns  Iteration: 3  Instance: /top/fpmul/fpmul_under_test/I3/I11
# ** Warning: There is an 'U'|'X'|'W'|'Z'|'-' in an arithmetic operand, the result will be 'X'(es).
#    Time: 5 ns  Iteration: 3  Instance: /top/fpmul/fpmul_under_test/I3/I11
# fpmul: input A = 0.000000, input B = 0.000000, output OUT = 0.000000
# fpmul: input A = 00000000000000000000000000000000, input B = 00000000000000000000000000000000, output OUT = xxxxxxxxxxxxxxxxxxxxxxxxxxxxxxxx
# refmod: input A = 0.000000, input B = 0.000000, output OUT = 0.000000
# refmod: input A = 00000000000000000000000000000000, input B = 00000000000000000000000000000000, output OUT = xxxxxxxxxxxxxxxxxxxxxxxxxxxxxxxx
# UVM_INFO @ 45: reporter [MISCMP] Miscompare for exp.data: lhs = 'h0 : rhs = 'h0xxxxxxxx
# UVM_INFO @ 45: reporter [MISCMP] 1 Miscompare(s) for object tr@825 vs. exp@617
# UVM_WARNING @ 45: uvm_test_top.env_h.comp [Comparator Mismatch] 
# fpmul: input A = 0.000000, input B = 0.000000, output OUT = 0.000000
# fpmul: input A = 00000000000000000000000000000000, input B = 00000000000000000000000000000000, output OUT = xxxxxxxxxxxxxxxxxxxxxxxxxxxxxxxx
# refmod: input A = 0.000000, input B = 0.000000, output OUT = 0.000000
# refmod: input A = 00000000000000000000000000000000, input B = 00000000000000000000000000000000, output OUT = 00000000000000000000000000000000
# UVM_INFO @ 75: uvm_test_top.env_h.comp [Comparator Match] 
# fpmul: input A = 0.000000, input B = -120876104.000000, output OUT = -0.000000
# fpmul: input A = 00010110000101110100010100111101, input B = 11001100111001101000110110001001, output OUT = 10100011100010000011101111010111
# refmod: input A = 0.000000, input B = -120876104.000000, output OUT = -0.000000
# refmod: input A = 00010110000101110100010100111101, input B = 11001100111001101000110110001001, output OUT = 10100011100010000011101111010111
# UVM_INFO @ 105: uvm_test_top.env_h.comp [Comparator Match] 
# fpmul: input A = -0.000000, input B = 91366126529395294208.000000, output OUT = -0.000000
# fpmul: input A = 10000000100101011010010000101110, input B = 01100000100111100111111010110110, output OUT = 10100001101110010100101011001011
# refmod: input A = -0.000000, input B = 91366126529395294208.000000, output OUT = -0.000000
# refmod: input A = 10000000100101011010010000101110, input B = 01100000100111100111111010110110, output OUT = 10100001101110010100101011001011
# UVM_INFO @ 135: uvm_test_top.env_h.comp [Comparator Match] 
# fpmul: input A = 0.000000, input B = -0.000016, output OUT = -0.000000
# fpmul: input A = 00001101101010000100001000000001, input B = 10110111100010000110001110001011, output OUT = 10000101101100110100100011111011
# refmod: input A = 0.000000, input B = -0.000016, output OUT = -0.000000
# refmod: input A = 00001101101010000100001000000001, input B = 10110111100010000110001110001011, output OUT = 10000101101100110100100011111011
# UVM_INFO @ 165: uvm_test_top.env_h.comp [Comparator Match] 
# fpmul: input A = -0.000000, input B = -1973360912028577385392965878284288.000000, output OUT = 61382.839844
# fpmul: input A = 10010000000111011011100110001101, input B = 11110110110000101001011010100010, output OUT = 01000111011011111100011011010111
# refmod: input A = -0.000000, input B = -1973360912028577385392965878284288.000000, output OUT = 61382.839844
# refmod: input A = 10010000000111011011100110001101, input B = 11110110110000101001011010100010, output OUT = 01000111011011111100011011010111
# UVM_INFO @ 195: uvm_test_top.env_h.comp [Comparator Match] 
# fpmul: input A = -0.000000, input B = -0.000000, output OUT = 0.000000
# fpmul: input A = 10110100111011000011011110011000, input B = 10101111111100101100101100100101, output OUT = 00100101011000000000100000000000
# refmod: input A = -0.000000, input B = -0.000000, output OUT = 0.000000
# refmod: input A = 10110100111011000011011110011000, input B = 10101111111100101100101100100101, output OUT = 00100101011000000000100000000000
# UVM_INFO @ 225: uvm_test_top.env_h.comp [Comparator Match] 
# fpmul: input A = 186358754790633863582630438477167067136.000000, input B = -0.000000, output OUT = -1243108533558312960.000000
# fpmul: input A = 01111111000011000011001101100100, input B = 10011101111111000000000100111111, output OUT = 11011101100010100000001101000101
# refmod: input A = 186358754790633863582630438477167067136.000000, input B = -0.000000, output OUT = -1243108533558312960.000000
# refmod: input A = 01111111000011000011001101100100, input B = 10011101111111000000000100111111, output OUT = 11011101100010100000001101000101
# UVM_INFO @ 255: uvm_test_top.env_h.comp [Comparator Match] 
# fpmul: input A = 0.000000, input B = -1776114066259968.000000, output OUT = -252753.062500
# fpmul: input A = 00101111000111000111011111001100, input B = 11011000110010011110101110111001, output OUT = 11001000011101101101010001000100
# refmod: input A = 0.000000, input B = -1776114066259968.000000, output OUT = -252753.062500
# refmod: input A = 00101111000111000111011111001100, input B = 11011000110010011110101110111001, output OUT = 11001000011101101101010001000100
# UVM_INFO @ 285: uvm_test_top.env_h.comp [Comparator Match] 
# fpmul: input A = -0.000070, input B = -3901013654157393920.000000, output OUT = 273267713638400.000000
# fpmul: input A = 10111000100100101110100000001011, input B = 11011110010110001000110010111101, output OUT = 01010111011110001000100100011001
# refmod: input A = -0.000070, input B = -3901013654157393920.000000, output OUT = 273267713638400.000000
# refmod: input A = 10111000100100101110100000001011, input B = 11011110010110001000110010111101, output OUT = 01010111011110001000100100011001
# UVM_INFO @ 315: uvm_test_top.env_h.comp [Comparator Match] 
# fpmul: input A = 1766208303761356085111291904.000000, input B = -0.000000, output OUT = -3.488063
# fpmul: input A = 01101100101101101001111100100101, input B = 10010011000111000111011101111100, output OUT = 11000000010111110011110001101110
# refmod: input A = 1766208303761356085111291904.000000, input B = -0.000000, output OUT = -3.488063
# refmod: input A = 01101100101101101001111100100101, input B = 10010011000111000111011101111100, output OUT = 11000000010111110011110001101110
# UVM_INFO @ 345: uvm_test_top.env_h.comp [Comparator Match] 
# fpmul: input A = -817258561480927696085133033472.000000, input B = -0.000000, output OUT = 0.003345
# fpmul: input A = 11110001001001010000101101000111, input B = 10001001101010100000001010100101, output OUT = 00111011010110110011011001100011
# refmod: input A = -817258561480927696085133033472.000000, input B = -0.000000, output OUT = 0.003345
# refmod: input A = 11110001001001010000101101000111, input B = 10001001101010100000001010100101, output OUT = 00111011010110110011011001100011
# UVM_INFO @ 375: uvm_test_top.env_h.comp [Comparator Match] 
# fpmul: input A = -0.000000, input B = 0.000000, output OUT = -0.000000
# fpmul: input A = 10101111111101100010111100111001, input B = 00011101001101100100010100000011, output OUT = 10001101101011110100011111110000
# refmod: input A = -0.000000, input B = 0.000000, output OUT = -0.000000
# refmod: input A = 10101111111101100010111100111001, input B = 00011101001101100100010100000011, output OUT = 10001101101011110100011111110000
# UVM_INFO @ 405: uvm_test_top.env_h.comp [Comparator Match] 
# fpmul: input A = 29.450825, input B = -0.000000, output OUT = -0.000000
# fpmul: input A = 01000001111010111001101101001010, input B = 10100001001100001111011001110100, output OUT = 10100011101000101101110110010101
# refmod: input A = 29.450825, input B = -0.000000, output OUT = -0.000000
# refmod: input A = 01000001111010111001101101001010, input B = 10100001001100001111011001110100, output OUT = 10100011101000101101110110010101
# UVM_INFO @ 435: uvm_test_top.env_h.comp [Comparator Match] 
# fpmul: input A = -0.000000, input B = -43968968523776.000000, output OUT = 0.000000
# fpmul: input A = 10011001001010111110010100010011, input B = 11010110000111111111010101001011, output OUT = 00101111110101101100111111110111
# refmod: input A = -0.000000, input B = -43968968523776.000000, output OUT = 0.000000
# refmod: input A = 10011001001010111110010100010011, input B = 11010110000111111111010101001011, output OUT = 00101111110101101100111111110111
# UVM_INFO @ 465: uvm_test_top.env_h.comp [Comparator Match] 
# fpmul: input A = -0.000000, input B = 0.410133, output OUT = -0.000000
# fpmul: input A = 10001000000100100101010111100110, input B = 00111110110100011111110100000010, output OUT = 10000111011100000001000110000010
# refmod: input A = -0.000000, input B = 0.410133, output OUT = -0.000000
# refmod: input A = 10001000000100100101010111100110, input B = 00111110110100011111110100000010, output OUT = 10000111011100000001000110000010
# UVM_INFO @ 495: uvm_test_top.env_h.comp [Comparator Match] 
# fpmul: input A = 0.000000, input B = 6212634273594702329468402295373824.000000, output OUT = 2700482560.000000
# fpmul: input A = 00010111000001101000011010010011, input B = 01110111100110010010011100111100, output OUT = 01001111001000001111011000011000
# refmod: input A = 0.000000, input B = 6212634273594702329468402295373824.000000, output OUT = 2700482560.000000
# refmod: input A = 00010111000001101000011010010011, input B = 01110111100110010010011100111100, output OUT = 01001111001000001111011000011000
# UVM_INFO @ 525: uvm_test_top.env_h.comp [Comparator Match] 
# fpmul: input A = 17.633726, input B = -0.000000, output OUT = -0.000000
# fpmul: input A = 01000001100011010001000111011111, input B = 10100000111101101101111101100100, output OUT = 10100011000010000000101001000110
# refmod: input A = 17.633726, input B = -0.000000, output OUT = -0.000000
# refmod: input A = 01000001100011010001000111011111, input B = 10100000111101101101111101100100, output OUT = 10100011000010000000101001000110
# UVM_INFO @ 555: uvm_test_top.env_h.comp [Comparator Match] 
# fpmul: input A = -527528070423274140744024064.000000, input B = -0.000000, output OUT = 24556402500435968.000000
# fpmul: input A = 11101011110110100010111000110101, input B = 10101110010011001011101010010100, output OUT = 01011010101011100111101111010110
# refmod: input A = -527528070423274140744024064.000000, input B = -0.000000, output OUT = 24556402500435968.000000
# refmod: input A = 11101011110110100010111000110101, input B = 10101110010011001011101010010100, output OUT = 01011010101011100111101111010110
# UVM_INFO @ 585: uvm_test_top.env_h.comp [Comparator Match] 
# fpmul: input A = -5810808160256.000000, input B = -28552.669922, output OUT = 165914088428273664.000000
# fpmul: input A = 11010100101010010001110111100101, input B = 11000110110111110001000101010111, output OUT = 01011100000100110101110001111111
# refmod: input A = -5810808160256.000000, input B = -28552.669922, output OUT = 165914088428273664.000000
# refmod: input A = 11010100101010010001110111100101, input B = 11000110110111110001000101010111, output OUT = 01011100000100110101110001111111
# UVM_INFO @ 615: uvm_test_top.env_h.comp [Comparator Match] 
# fpmul: input A = 0.000000, input B = 6477558393761930849817914475806720.000000, output OUT = 170666778978942976.000000
# fpmul: input A = 00100011111100110000001100000110, input B = 01110111100111111010111100100100, output OUT = 01011100000101111001010100100010
# refmod: input A = 0.000000, input B = 6477558393761930849817914475806720.000000, output OUT = 170666778978942976.000000
# refmod: input A = 00100011111100110000001100000110, input B = 01110111100111111010111100100100, output OUT = 01011100000101111001010100100010
# UVM_INFO @ 645: uvm_test_top.env_h.comp [Comparator Match] 
# fpmul: input A = 833263920742400.000000, input B = 21738714824704.000000, output OUT = 18114086411556765198211612672.000000
# fpmul: input A = 01011000001111010111011001011000, input B = 01010101100111100010101110000011, output OUT = 01101110011010100001111001111100
# refmod: input A = 833263920742400.000000, input B = 21738714824704.000000, output OUT = 18114086411556765198211612672.000000
# refmod: input A = 01011000001111010111011001011000, input B = 01010101100111100010101110000011, output OUT = 01101110011010100001111001111100
# UVM_INFO @ 675: uvm_test_top.env_h.comp [Comparator Match] 
# fpmul: input A = -0.000000, input B = -11566176228947787776.000000, output OUT = 6839506.000000
# fpmul: input A = 10101011001001100111001001001111, input B = 11011111001000001000001101010000, output OUT = 01001010110100001011100110100100
# refmod: input A = -0.000000, input B = -11566176228947787776.000000, output OUT = 6839506.000000
# refmod: input A = 10101011001001100111001001001111, input B = 11011111001000001000001101010000, output OUT = 01001010110100001011100110100100
# UVM_INFO @ 705: uvm_test_top.env_h.comp [Comparator Match] 
# fpmul: input A = 0.000000, input B = -249.453873, output OUT = -0.000000
# fpmul: input A = 00010010101101011101011000010101, input B = 11000011011110010111010000110001, output OUT = 10010110101100010010111111000010
# refmod: input A = 0.000000, input B = -249.453873, output OUT = -0.000000
# refmod: input A = 00010010101101011101011000010101, input B = 11000011011110010111010000110001, output OUT = 10010110101100010010111111000010
# UVM_INFO @ 735: uvm_test_top.env_h.comp [Comparator Match] 
# fpmul: input A = 0.000000, input B = -10966274146304.000000, output OUT = -0.000000
# fpmul: input A = 00010111001011011001101110101100, input B = 11010101000111111001010010001110, output OUT = 10101100110110000111000011011100
# refmod: input A = 0.000000, input B = -10966274146304.000000, output OUT = -0.000000
# refmod: input A = 00010111001011011001101110101100, input B = 11010101000111111001010010001110, output OUT = 10101100110110000111000011011100
# UVM_INFO @ 765: uvm_test_top.env_h.comp [Comparator Match] 
# fpmul: input A = -665219312240757309440.000000, input B = 0.054297, output OUT = -36119339602488066048.000000
# fpmul: input A = 11100010000100000011111100010111, input B = 00111101010111100110011001101010, output OUT = 11011111111110101010000011010110
# refmod: input A = -665219312240757309440.000000, input B = 0.054297, output OUT = -36119339602488066048.000000
# refmod: input A = 11100010000100000011111100010111, input B = 00111101010111100110011001101010, output OUT = 11011111111110101010000011010110
# UVM_INFO @ 795: uvm_test_top.env_h.comp [Comparator Match] 
# fpmul: input A = -2913472694387533553580827924758528.000000, input B = -0.000000, output OUT = 0.000519
# fpmul: input A = 11110111000011111010010100110010, input B = 10000010011100100011110100010001, output OUT = 00111010000001111110110001101101
# refmod: input A = -2913472694387533553580827924758528.000000, input B = -0.000000, output OUT = 0.000519
# refmod: input A = 11110111000011111010010100110010, input B = 10000010011100100011110100010001, output OUT = 00111010000001111110110001101101
# UVM_INFO @ 825: uvm_test_top.env_h.comp [Comparator Match] 
# fpmul: input A = 0.000005, input B = 12836099274820505420196478976.000000, output OUT = 67922280773685289680896.000000
# fpmul: input A = 00110110101100011000110110101110, input B = 01101110001001011110011100010111, output OUT = 01100101011001100010000100110000
# refmod: input A = 0.000005, input B = 12836099274820505420196478976.000000, output OUT = 67922280773685289680896.000000
# refmod: input A = 00110110101100011000110110101110, input B = 01101110001001011110011100010111, output OUT = 01100101011001100010000100110000
# UVM_INFO @ 855: uvm_test_top.env_h.comp [Comparator Match] 
# fpmul: input A = -335743424.000000, input B = 24771856095567436316672.000000, output OUT = -8316987723837603216396518424576.000000
# fpmul: input A = 11001101101000000001100001001110, input B = 01100100101001111101110001010010, output OUT = 11110010110100011111001101000110
# refmod: input A = -335743424.000000, input B = 24771856095567436316672.000000, output OUT = -8316987723837603216396518424576.000000
# refmod: input A = 11001101101000000001100001001110, input B = 01100100101001111101110001010010, output OUT = 11110010110100011111001101000110
# UVM_INFO @ 885: uvm_test_top.env_h.comp [Comparator Match] 
# fpmul: input A = -284175.375000, input B = -0.000001, output OUT = 0.206255
# fpmul: input A = 11001000100010101100000111101100, input B = 10110101010000101101010010101011, output OUT = 00111110010100110011010001110100
# refmod: input A = -284175.375000, input B = -0.000001, output OUT = 0.206255
# refmod: input A = 11001000100010101100000111101100, input B = 10110101010000101101010010101011, output OUT = 00111110010100110011010001110100
# UVM_INFO @ 915: uvm_test_top.env_h.comp [Comparator Match] 
# fpmul: input A = -0.000000, input B = 390586269696.000000, output OUT = -0.000000
# fpmul: input A = 10011010001101111001011011101100, input B = 01010010101101011110000110000011, output OUT = 10101101100000100110111101101110
# refmod: input A = -0.000000, input B = 390586269696.000000, output OUT = -0.000000
# refmod: input A = 10011010001101111001011011101100, input B = 01010010101101011110000110000011, output OUT = 10101101100000100110111101101110
# UVM_INFO @ 945: uvm_test_top.env_h.comp [Comparator Match] 
# fpmul: input A = 0.000000, input B = 31126892987710926147813376.000000, output OUT = 407530373120.000000
# fpmul: input A = 00101000011010111101101010111010, input B = 01101001110011011111101100000010, output OUT = 01010010101111011100010101101000
# refmod: input A = 0.000000, input B = 31126892987710926147813376.000000, output OUT = 407530373120.000000
# refmod: input A = 00101000011010111101101010111010, input B = 01101001110011011111101100000010, output OUT = 01010010101111011100010101101000
# UVM_INFO @ 975: uvm_test_top.env_h.comp [Comparator Match] 
# fpmul: input A = 73024812351488.000000, input B = 0.000000, output OUT = 0.000000
# fpmul: input A = 01010110100001001101010011010100, input B = 00001010101010010111010001011111, output OUT = 00100001101011111101100111000011
# refmod: input A = 73024812351488.000000, input B = 0.000000, output OUT = 0.000000
# refmod: input A = 01010110100001001101010011010100, input B = 00001010101010010111010001011111, output OUT = 00100001101011111101100111000011
# UVM_INFO @ 1005: uvm_test_top.env_h.comp [Comparator Match] 
# fpmul: input A = 0.851170, input B = -0.000046, output OUT = -0.000039
# fpmul: input A = 00111111010110011110011001000101, input B = 10111000010000100001010011100001, output OUT = 10111000001001010011001001000110
# refmod: input A = 0.851170, input B = -0.000046, output OUT = -0.000039
# refmod: input A = 00111111010110011110011001000101, input B = 10111000010000100001010011100001, output OUT = 10111000001001010011001001000110
# UVM_INFO @ 1035: uvm_test_top.env_h.comp [Comparator Match] 
# fpmul: input A = -20.881390, input B = 0.000000, output OUT = -0.000000
# fpmul: input A = 11000001101001110000110100010110, input B = 00000111111101000110110010111100, output OUT = 10001010000111110111111101101101
# refmod: input A = -20.881390, input B = 0.000000, output OUT = -0.000000
# refmod: input A = 11000001101001110000110100010110, input B = 00000111111101000110110010111100, output OUT = 10001010000111110111111101101101
# UVM_INFO @ 1065: uvm_test_top.env_h.comp [Comparator Match] 
# fpmul: input A = 0.000000, input B = 581566125583197104461088160743424.000000, output OUT = 2848454082560.000000
# fpmul: input A = 00011101101110010000100110011011, input B = 01110101111001010110001100101100, output OUT = 01010100001001011100110101000110
# refmod: input A = 0.000000, input B = 581566125583197104461088160743424.000000, output OUT = 2848454082560.000000
# refmod: input A = 00011101101110010000100110011011, input B = 01110101111001010110001100101100, output OUT = 01010100001001011100110101000110
# UVM_INFO @ 1095: uvm_test_top.env_h.comp [Comparator Match] 
# fpmul: input A = -0.191135, input B = -7148013568.000000, output OUT = 1366235008.000000
# fpmul: input A = 10111110010000111011100011100000, input B = 11001111110101010000011100000100, output OUT = 01001110101000101101111000101111
# refmod: input A = -0.191135, input B = -7148013568.000000, output OUT = 1366235008.000000
# refmod: input A = 10111110010000111011100011100000, input B = 11001111110101010000011100000100, output OUT = 01001110101000101101111000101111
# UVM_INFO @ 1125: uvm_test_top.env_h.comp [Comparator Match] 
# fpmul: input A = -0.000020, input B = -0.000000, output OUT = 0.000000
# fpmul: input A = 10110111101010110011111010000101, input B = 10110000111000111001100100001100, output OUT = 00101001000110000011111011010000
# refmod: input A = -0.000020, input B = -0.000000, output OUT = 0.000000
# refmod: input A = 10110111101010110011111010000101, input B = 10110000111000111001100100001100, output OUT = 00101001000110000011111011010000
# UVM_INFO @ 1155: uvm_test_top.env_h.comp [Comparator Match] 
# fpmul: input A = 511598109030182656409600.000000, input B = 61406957568.000000, output OUT = 31415682221800259392901186494398464.000000
# fpmul: input A = 01100110110110001010101110010100, input B = 01010001011001001100001000111101, output OUT = 01111000110000011001110100110101
# refmod: input A = 511598109030182656409600.000000, input B = 61406957568.000000, output OUT = 31415682221800259392901186494398464.000000
# refmod: input A = 01100110110110001010101110010100, input B = 01010001011001001100001000111101, output OUT = 01111000110000011001110100110101
# UVM_INFO @ 1185: uvm_test_top.env_h.comp [Comparator Match] 
# fpmul: input A = 0.000000, input B = 550823056661495936974848.000000, output OUT = 0.137249
# fpmul: input A = 00010110100110100011101010100101, input B = 01100110111010010100100001011011, output OUT = 00111110000011001000101011110111
# refmod: input A = 0.000000, input B = 550823056661495936974848.000000, output OUT = 0.137249
# refmod: input A = 00010110100110100011101010100101, input B = 01100110111010010100100001011011, output OUT = 00111110000011001000101011110111
# UVM_INFO @ 1215: uvm_test_top.env_h.comp [Comparator Match] 
# fpmul: input A = -0.000047, input B = 0.000000, output OUT = -0.000000
# fpmul: input A = 10111000010001010001101101001011, input B = 00010110101110110110110000010110, output OUT = 10001111100100000100111000101000
# refmod: input A = -0.000047, input B = 0.000000, output OUT = -0.000000
# refmod: input A = 10111000010001010001101101001011, input B = 00010110101110110110110000010110, output OUT = 10001111100100000100111000101000
# UVM_INFO @ 1245: uvm_test_top.env_h.comp [Comparator Match] 
# fpmul: input A = 0.000000, input B = 0.000000, output OUT = 0.000000
# fpmul: input A = 00100110000000001001101011110100, input B = 00101010011110110110011001011010, output OUT = 00010000111111001001011010110000
# refmod: input A = 0.000000, input B = 0.000000, output OUT = 0.000000
# refmod: input A = 00100110000000001001101011110100, input B = 00101010011110110110011001011010, output OUT = 00010000111111001001011010110000
# UVM_INFO @ 1275: uvm_test_top.env_h.comp [Comparator Match] 
# fpmul: input A = -16459043748970496.000000, input B = 7633895487753420800.000000, output OUT = -125646615859649699061946658976694272.000000
# fpmul: input A = 11011010011010011110010110100111, input B = 01011110110100111110001000010111, output OUT = 11111001110000011001011011011010
# refmod: input A = -16459043748970496.000000, input B = 7633895487753420800.000000, output OUT = -125646615859649699061946658976694272.000000
# refmod: input A = 11011010011010011110010110100111, input B = 01011110110100111110001000010111, output OUT = 11111001110000011001011011011010
# UVM_INFO @ 1305: uvm_test_top.env_h.comp [Comparator Match] 
# fpmul: input A = 550616001416827764736.000000, input B = 3784792064.000000, output OUT = 2083967030706358671883123032064.000000
# fpmul: input A = 01100001111011101100101010101000, input B = 01001111011000011001011101011000, output OUT = 01110001110100100110110101001001
# refmod: input A = 550616001416827764736.000000, input B = 3784792064.000000, output OUT = 2083967030706358671883123032064.000000
# refmod: input A = 01100001111011101100101010101000, input B = 01001111011000011001011101011000, output OUT = 01110001110100100110110101001001
# UVM_INFO @ 1335: uvm_test_top.env_h.comp [Comparator Match] 
# fpmul: input A = 0.000082, input B = -0.000000, output OUT = -0.000000
# fpmul: input A = 00111000101011001101010000001010, input B = 10110010011100010000111001000001, output OUT = 10101011101000101011110100111101
# refmod: input A = 0.000082, input B = -0.000000, output OUT = -0.000000
# refmod: input A = 00111000101011001101010000001010, input B = 10110010011100010000111001000001, output OUT = 10101011101000101011110100111101
# UVM_INFO @ 1365: uvm_test_top.env_h.comp [Comparator Match] 
# fpmul: input A = 1550987457376288768.000000, input B = -0.000000, output OUT = -0.000002
# fpmul: input A = 01011101101011000011000110110111, input B = 10010111110100100110111000100000, output OUT = 10110110000011011000101011011011
# refmod: input A = 1550987457376288768.000000, input B = -0.000000, output OUT = -0.000002
# refmod: input A = 01011101101011000011000110110111, input B = 10010111110100100110111000100000, output OUT = 10110110000011011000101011011011
# UVM_INFO @ 1395: uvm_test_top.env_h.comp [Comparator Match] 
# fpmul: input A = 3487978520178363203584.000000, input B = -0.000076, output OUT = -263851196886810624.000000
# fpmul: input A = 01100011001111010001010101101101, input B = 10111000100111101010010000010010, output OUT = 11011100011010100101100011010001
# refmod: input A = 3487978520178363203584.000000, input B = -0.000076, output OUT = -263851196886810624.000000
# refmod: input A = 01100011001111010001010101101101, input B = 10111000100111101010010000010010, output OUT = 11011100011010100101100011010001
# UVM_INFO @ 1425: uvm_test_top.env_h.comp [Comparator Match] 
# fpmul: input A = -449.694427, input B = 117228478464.000000, output OUT = -52716994822144.000000
# fpmul: input A = 11000011111000001101100011100011, input B = 01010001110110100101101011100101, output OUT = 11010110001111111100100010000111
# refmod: input A = -449.694427, input B = 117228478464.000000, output OUT = -52716994822144.000000
# refmod: input A = 11000011111000001101100011100011, input B = 01010001110110100101101011100101, output OUT = 11010110001111111100100010000111
# UVM_INFO @ 1455: uvm_test_top.env_h.comp [Comparator Match] 
